<?xml version="1.0" encoding="UTF-8" standalone="no"?>
<!-- Uploaded to: SVG Repo, www.svgrepo.com, Generator: SVG Repo Mixer Tools -->
<svg width="800px" height="800px" viewBox="0 0 64 64" version="1.1" xmlns="http://www.w3.org/2000/svg" xmlns:xlink="http://www.w3.org/1999/xlink">
    
    <title>gen-lifebelt</title>
    <desc>Created with Sketch.</desc>
    <defs>

</defs>
    <g id="General" stroke="none" stroke-width="1" fill="none" fill-rule="evenodd">
        <g id="SLICES-64px">

</g>
        <g id="ICONS" transform="translate(5.000000, 5.000000)">
            <g id="gen-lifebelt" transform="translate(0.000000, 2.000000)">
                <path d="M26.0001,40 C18.2681,40 12.0001,33.732 12.0001,26 C12.0001,18.267 18.2681,12 26.0001,12 C33.7321,12 40.0001,18.267 40.0001,26 C40.0001,33.732 33.7321,40 26.0001,40 M26.0001,0 C11.6411,0 0.0001,11.64 0.0001,26 C0.0001,40.359 11.6411,52 26.0001,52 C40.3591,52 52.0001,40.359 52.0001,26 C52.0001,11.64 40.3591,0 26.0001,0" id="Fill-547" fill="#CDCCD6">

</path>
                <path d="M3.0025,13.8716 L13.6385,19.4216 L13.6485,19.4116 C14.9905,16.9016 17.0765,14.8566 19.6105,13.5526 L19.6385,13.5256 L13.8725,3.0026 C9.2455,5.4476 5.4475,9.2456 3.0025,13.8716" id="Fill-548" fill="#FFFFFF">

</path>
                <path d="M38.128,3.0022 L32.361,13.5252 L32.39,13.5532 C34.923,14.8562 37.01,16.9012 38.352,19.4122 L38.361,19.4212 L48.998,13.8712 C46.553,9.2452 42.754,5.4472 38.128,3.0022" id="Fill-549" fill="#FFFFFF">

</path>
                <path d="M13.648,32.5872 L13.639,32.5782 L3.002,38.1282 C5.447,42.7542 9.246,46.5532 13.872,48.9972 L19.639,38.4742 L19.611,38.4472 C17.077,37.1442 14.99,35.0982 13.648,32.5872" id="Fill-550" fill="#FFFFFF">

</path>
                <path d="M48.9976,38.1284 L38.3616,32.5774 L38.3516,32.5864 C37.0106,35.0974 34.9236,37.1434 32.3896,38.4474 L32.3616,38.4744 L38.1276,48.9974 C42.7546,46.5524 46.5526,42.7544 48.9976,38.1284" id="Fill-551" fill="#FFFFFF">

</path>
                <path d="M23.0001,49 C37.3591,49 49.0001,37.359 49.0001,23 C49.0001,16.584 46.6711,10.715 42.8201,6.181 C48.4341,10.95 52.0001,18.056 52.0001,26 C52.0001,40.359 40.3591,52 26.0001,52 C18.0571,52 10.9501,48.434 6.1811,42.819 C10.7151,46.671 16.5841,49 23.0001,49" id="Fill-552" fill-opacity="0.25" fill="#6C6984">

</path>
                <path d="M9.0001,23 C9.0001,15.267 15.2681,9 23.0001,9 C27.6321,9 31.7271,11.259 34.2751,14.725 C31.9551,13.02 29.1001,12 26.0001,12 C18.2681,12 12.0001,18.267 12.0001,26 C12.0001,29.1 13.0201,31.955 14.7251,34.275 C11.2591,31.726 9.0001,27.632 9.0001,23" id="Fill-553" fill-opacity="0.25" fill="#6C6984">

</path>
                <path d="M52.0001,26 C52.0001,11.64 40.3591,0 26.0001,0 C11.6411,0 0.0001,11.64 0.0001,26 C0.0001,40.359 11.6411,52 26.0001,52 C40.3591,52 52.0001,40.359 52.0001,26 Z" id="Stroke-554" stroke="#676883" stroke-width="2" stroke-linecap="round" stroke-linejoin="round">

</path>
                <path d="M40.0001,26 C40.0001,33.732 33.7321,40 26.0001,40 C18.2681,40 12.0001,33.732 12.0001,26 C12.0001,18.267 18.2681,12 26.0001,12 C33.7321,12 40.0001,18.267 40.0001,26 Z" id="Stroke-555" stroke="#676883" stroke-width="2" stroke-linecap="round" stroke-linejoin="round">

</path>
                <path d="M13.6387,19.4216 L2.9967,13.8686 C2.3627,12.7226 1.9997,11.4026 1.9997,9.9996 C1.9997,5.5816 5.5817,1.9996 9.9997,1.9996 C11.4037,1.9996 12.7227,2.3626 13.8687,2.9966 L19.6387,13.5256" id="Stroke-556" stroke="#676883" stroke-width="2" stroke-linecap="round" stroke-linejoin="round">

</path>
                <path d="M38.3614,19.4216 L49.0034,13.8686 C49.6374,12.7226 50.0004,11.4026 50.0004,9.9996 C50.0004,5.5816 46.4184,1.9996 42.0004,1.9996 C40.5964,1.9996 39.2774,2.3626 38.1314,2.9966 L32.3614,13.5256" id="Stroke-557" stroke="#676883" stroke-width="2" stroke-linecap="round" stroke-linejoin="round">

</path>
                <path d="M13.6387,32.5779 L2.9967,38.1309 C2.3627,39.2769 1.9997,40.5969 1.9997,41.9999 C1.9997,46.4179 5.5817,49.9999 9.9997,49.9999 C11.4037,49.9999 12.7227,49.6379 13.8687,49.0029 L19.6387,38.4749" id="Stroke-558" stroke="#676883" stroke-width="2" stroke-linecap="round" stroke-linejoin="round">

</path>
                <path d="M38.3614,32.5779 L49.0034,38.1309 C49.6374,39.2769 50.0004,40.5969 50.0004,41.9999 C50.0004,46.4179 46.4184,49.9999 42.0004,49.9999 C40.5964,49.9999 39.2774,49.6379 38.1314,49.0029 L32.3614,38.4749" id="Stroke-559" stroke="#676883" stroke-width="2" stroke-linecap="round" stroke-linejoin="round">

</path>
            </g>
        </g>
    </g>
</svg>