(-6.2863331, 53.3478162) (-6.2863333, 53.3478072) 0.000994986844513647
(-6.2654785, 53.3476507) (-6.2654757, 53.3476399) 0.0012336679752509828
(-6.2871205, 53.3478471) (-6.2871217, 53.3478344) 0.0014100119674026093
(-6.265131, 53.3462473) (-6.2651293, 53.3462276) 0.002185649973646245
(-6.2618233, 53.3687069) (-6.2618324, 53.3686883) 0.002291412564165704
(-6.3440298, 53.3087356) (-6.3440428, 53.3087179) 0.0024322631346580838
(-6.2400049, 53.3489511) (-6.2400092, 53.3489275) 0.00265211320388244
(-6.2463344, 53.2883392) (-6.2463174, 53.2883562) 0.0026653875515751067
(-6.2534301, 53.3599729) (-6.2534155, 53.3599522) 0.0028054807333372346
(-6.3319203, 53.3190312) (-6.3318995, 53.3190467) 0.0028781439957952706
(-6.2246844, 53.4499048) (-6.2246695, 53.4499267) 0.0029334886040280838
(-6.264856, 53.3229749) (-6.2648351, 53.3229567) 0.0030737054614466963
(-6.2632487, 53.3465751) (-6.2632414, 53.3465471) 0.003199557557179223
(-6.3833436, 53.4157589) (-6.3833275, 53.4157829) 0.0031998112744447776
(-6.2715373, 53.3666706) (-6.2715662, 53.366675) 0.0032501296081874696
(-6.2852053, 53.3478274) (-6.2852062, 53.3478571) 0.003284168550962475
(-6.3752992, 53.2857403) (-6.3753071, 53.2857703) 0.003429630137604638
(-6.4627564, 53.2842292) (-6.4627396, 53.2842558) 0.003482440739402501
(-6.2585927, 53.3486037) (-6.2585785, 53.3485755) 0.003494125610615986
(-6.3623006, 53.423722) (-6.362275, 53.4237442) 0.0037579133108860455
(-6.1253951, 53.2606731) (-6.1253808, 53.2607047) 0.0038385348784838328
(-6.2738595, 53.3469029) (-6.2738484, 53.3469363) 0.0038925388750048447
(-6.1943343, 53.3479456) (-6.1943184, 53.3479139) 0.003925045306526569
(-6.4375243, 53.3595979) (-6.437543, 53.3596285) 0.0039693359611022525
(-6.3987241, 53.3146016) (-6.3987056, 53.3145706) 0.003995779450125408
(-6.3978726, 53.3801901) (-6.3979092, 53.3801932) 0.004084131375225346
(-6.2430268, 53.3492813) (-6.2430303, 53.349244) 0.004141307052855406
(-6.3756844, 53.331682) (-6.3756987, 53.331646) 0.004284270643704481
(-6.4483332, 53.3368085) (-6.4483375, 53.3367697) 0.004313655470263366
(-6.3757953, 53.3317499) (-6.3758349, 53.3317473) 0.004412689072497246
(-6.3176771, 53.3357209) (-6.3176395, 53.3357061) 0.004489511047738901
(-6.2412923, 53.34633) (-6.2412534, 53.3463412) 0.004499167056506828
(-6.3514516, 53.285152) (-6.3514368, 53.2851136) 0.004551607231135096
(-6.2407317, 53.3476224) (-6.240725, 53.3476637) 0.004625533393417528
(-6.2471433, 53.3494906) (-6.2471366, 53.349532) 0.004636387731763479
(-6.3318182, 53.3190111) (-6.3318219, 53.3190534) 0.004692928709623496
(-6.3041932, 53.3973487) (-6.3042024, 53.3973066) 0.0047641336860396065
(-6.2479554, 53.349543) (-6.2479647, 53.3495007) 0.0047886069666132685
(-6.3559219, 53.2854933) (-6.3559418, 53.2855326) 0.00487431786891403
(-6.3131916, 53.3358582) (-6.3132073, 53.3358995) 0.004886963590938636
(-6.2539812, 53.3467815) (-6.2539901, 53.3468252) 0.004930643136548526
(-6.4668516, 53.2899544) (-6.4668515, 53.2899087) 0.005049294023698839
(-6.2662086, 53.2873486) (-6.2662504, 53.287329) 0.00512803856862459
(-6.3177513, 53.3353252) (-6.3177652, 53.3353697) 0.0051552808341715365
(-6.2696136, 53.3493768) (-6.2695928, 53.3493338) 0.005285672524141337
(-6.3079513, 53.2764089) (-6.3079134, 53.2764384) 0.005328268779620311
(-6.2865961, 53.2980466) (-6.2866444, 53.2980467) 0.005370733748172636
(-6.252746, 53.3509793) (-6.2527685, 53.3510233) 0.005469265823897757
(-6.2781195, 53.3471866) (-6.278126, 53.347137) 0.005529638944737275
(-6.2749104, 53.3600271) (-6.2749148, 53.360077) 0.005537050119251322
(-6.2730701, 53.346818) (-6.2730839, 53.3467698) 0.005544100249736345
(-6.3160526, 53.2996217) (-6.3160321, 53.2996678) 0.005581659724399409
(-6.1969903, 53.3450432) (-6.1969426, 53.3450615) 0.005676699645500445
(-6.2592545, 53.347433) (-6.259209, 53.3474572) 0.00572295980014306
(-6.3766342, 53.393718) (-6.3765929, 53.3937519) 0.005926525067259901
(-6.383722, 53.4160528) (-6.383713, 53.4159991) 0.006017945700097148
(-6.2668621, 53.5203807) (-6.2668552, 53.520326) 0.006094511922136338
(-6.3611748, 53.382579) (-6.3611249, 53.3825556) 0.006121638498207016
(-6.3668104, 53.3362936) (-6.3667872, 53.3363448) 0.006218423630340642
(-6.4120508, 53.284551) (-6.4120111, 53.2845912) 0.006262539033943483
(-6.3649955, 53.3615405) (-6.3649527, 53.3615781) 0.006317822781210546
(-6.2000504, 53.2909818) (-6.2000715, 53.2909274) 0.006455113132798822
(-6.2541165, 53.3591004) (-6.2540632, 53.3591241) 0.0064798346702186396
(-6.2518868, 53.3474489) (-6.2519194, 53.3474979) 0.0065172897284265455
(-6.2275125, 53.34513) (-6.2274534, 53.3451298) 0.006571666428346921
(-6.227972, 53.3448605) (-6.2280305, 53.3448694) 0.006578885629296012
(-6.3294789, 53.2719558) (-6.3294865, 53.2718957) 0.006695632941901059
(-6.3549618, 53.2855332) (-6.3549229, 53.2855795) 0.006700032920488908
(-6.2526086, 53.3447664) (-6.2526357, 53.344712) 0.006725846878767377
(-6.3959161, 53.2813504) (-6.3958548, 53.2813548) 0.006833577545647443
(-6.3734073, 53.2866588) (-6.3734113, 53.2865969) 0.0068548805922452145
(-6.2691498, 53.3361997) (-6.2691631, 53.3361391) 0.006859446908829699
(-6.3684911, 53.3813269) (-6.3685067, 53.381388) 0.0069713527346072085
(-6.3686678, 53.2870962) (-6.3686053, 53.2871026) 0.006985587892225245
(-6.3127427, 53.4058565) (-6.3127534, 53.4057942) 0.00698748894576613
(-6.3751172, 53.3300438) (-6.3751688, 53.3300799) 0.006988238996167442
(-6.2108194, 53.351759) (-6.2108133, 53.3518221) 0.007008128934206169
(-6.2575138, 53.3478711) (-6.2575017, 53.3478086) 0.007038088442074533
(-6.4674251, 53.3003399) (-6.4674709, 53.3003856) 0.007171550236263558
(-6.3654782, 53.2876966) (-6.3654717, 53.2876311) 0.0072743711743324295
(-6.2437102, 53.2837909) (-6.2436737, 53.2837349) 0.007401915673989814
(-6.1847522, 53.3682674) (-6.184762, 53.3682011) 0.007409890385948662
(-6.467095, 53.2900942) (-6.4671617, 53.2900934) 0.007417238534826613
(-6.4092671, 53.4139507) (-6.4092043, 53.4139735) 0.007423637257114194
(-6.2632207, 53.4398484) (-6.2632257, 53.439781) 0.007470532102488832
(-6.3626189, 53.423898) (-6.3625722, 53.4239466) 0.0074706566064839585
(-6.362253, 53.423507) (-6.3621909, 53.423533) 0.007479147526679325
(-6.2659409, 53.2871406) (-6.2660006, 53.2871075) 0.007579760620315308
(-6.3132073, 53.3358995) (-6.3132318, 53.3359638) 0.007610769778652546
(-6.1545329, 53.4153983) (-6.1544674, 53.4154185) 0.007617958642126464
(-6.1951178, 53.3099704) (-6.1951553, 53.3099127) 0.007620529348240745
(-6.1779321, 53.3024663) (-6.1779531, 53.3025322) 0.007650281682965832
(-6.2589465, 53.3475742) (-6.2589105, 53.3475152) 0.007651987596702058
(-6.3864422, 53.3261927) (-6.386495, 53.3262402) 0.007875385803958197
(-6.3185599, 53.3353587) (-6.3185453, 53.3352887) 0.007904874951963972
(-6.343186, 53.3008789) (-6.3432092, 53.3009468) 0.007934976585510171
(-6.2574468, 53.2947435) (-6.2575137, 53.2947698) 0.007986781631543326
(-6.356343, 53.2865165) (-6.3563731, 53.2865822) 0.00799491250043245
(-6.3753469, 53.3300032) (-6.3753137, 53.330069) 0.00815484966753108
(-6.1985281, 53.2608683) (-6.1985091, 53.260797) 0.008160099862273118
(-6.2275134, 53.3451361) (-6.227587, 53.3451386) 0.008188622277732172
(-6.4079976, 53.4047219) (-6.4079422, 53.4046728) 0.008208833664160928
(-6.166584, 53.2995907) (-6.1666331, 53.2995342) 0.008295946277117501
(-6.2445219, 53.3098835) (-6.2445613, 53.3099475) 0.008321002563388658
(-6.2654785, 53.3476507) (-6.2655098, 53.3477195) 0.00836313559308219
(-6.1872798, 53.6023455) (-6.1872051, 53.6023343) 0.008398043218776094
(-6.2610243, 53.347088) (-6.2610555, 53.3470184) 0.008439102126635708
(-6.170885, 53.401583) (-6.1708336, 53.4015262) 0.008490908402851688
(-6.3585325, 53.4038517) (-6.3585653, 53.4039217) 0.008552440617870008
(-6.1314007, 53.4028455) (-6.131459, 53.4027945) 0.008591730268136775
(-6.1986584, 53.2607836) (-6.1986691, 53.2608606) 0.008594714130256281
(-6.2578235, 53.3486882) (-6.2577986, 53.348614) 0.008656259982716437
(-6.2882087, 53.2802661) (-6.2881864, 53.2801907) 0.008694749043425607
(-6.1270403, 53.2883547) (-6.1270542, 53.2882771) 0.008717559502777823
(-6.2138094, 53.352083) (-6.2138574, 53.3521455) 0.008730396803793825
(-6.3283919, 53.3342205) (-6.3284474, 53.3342775) 0.008818670349274665
(-6.3758447, 53.289141) (-6.3758255, 53.2892185) 0.00882641065005383
(-6.2853022, 53.2961034) (-6.2852905, 53.2960242) 0.008849862689096901
(-6.332097, 53.2804193) (-6.3320457, 53.2804811) 0.008898714229155178
(-6.4061845, 53.3234473) (-6.4061157, 53.3234061) 0.008902378661153995
(-6.2499438, 53.3509854) (-6.2498721, 53.3509493) 0.008915498391774093
(-6.3076426, 53.3366063) (-6.3076211, 53.3365278) 0.008999328677489643
(-6.1795554, 53.3963139) (-6.1795054, 53.3963782) 0.009024344008004453
(-6.3490709, 53.3122619) (-6.348991, 53.3122465) 0.009046025451166595
(-6.2545746, 53.3472878) (-6.2544934, 53.3472944) 0.009058464048726882
(-6.3770417, 53.3629054) (-6.3771045, 53.362958) 0.009085711127407274
(-6.2382904, 53.2479991) (-6.2383643, 53.2479638) 0.009096672525224394
(-6.3692774, 53.3794482) (-6.3693405, 53.3795006) 0.009097346595928677
(-6.1945865, 53.347965) (-6.194509, 53.347993) 0.009156644154808161
(-6.4051785, 53.3240516) (-6.4052423, 53.3241043) 0.009178253221996602
(-6.4199285, 53.4039361) (-6.4200039, 53.40397) 0.009182856935765003
(-6.2013663, 53.3870144) (-6.2014093, 53.3869433) 0.009199819184845226
(-6.2662049, 53.3262241) (-6.2662286, 53.3261443) 0.009205626672087908
(-6.1045437, 53.2759003) (-6.1044608, 53.2759068) 0.0092460445719006
(-6.3756683, 53.3310188) (-6.3756564, 53.3309358) 0.009267066997526462
(-6.3969945, 53.4132851) (-6.3969175, 53.4132517) 0.009323634165445483
(-6.366169, 53.3032972) (-6.3661165, 53.3032311) 0.00935079996298205
(-6.1017465, 53.2752932) (-6.1018171, 53.2752463) 0.009408390086498833
(-6.3897669, 53.3632952) (-6.3898515, 53.3632895) 0.00942816756412733
(-6.2588475, 53.3475725) (-6.2589105, 53.3475152) 0.00944390379161093
(-6.3722412, 53.3933655) (-6.3721562, 53.3933765) 0.009529431036721093
(-6.1077821, 53.2848215) (-6.1077793, 53.2849078) 0.009546741295214161
(-6.2083512, 53.3533793) (-6.2083222, 53.3532974) 0.009610602849331922
(-6.0460686, 53.3777719) (-6.046072, 53.3776846) 0.009660734119748392
(-6.2230499, 53.3522933) (-6.2230461, 53.3522051) 0.00975876736374649
(-6.3395014, 53.3724186) (-6.3395535, 53.3723473) 0.0097801852125742
(-6.2939165, 53.2859258) (-6.2938428, 53.285877) 0.009810726914459802
(-6.3784875, 53.4223146) (-6.3784044, 53.4223464) 0.009885967536974483
(-6.3969175, 53.4122084) (-6.3970063, 53.4122145) 0.009897104303127709
(-6.1242307, 53.2493317) (-6.1243084, 53.249288) 0.009899013227121124
(-6.1270572, 53.2880937) (-6.1271451, 53.2881102) 0.009942829088091057
(-6.2752403, 53.3302712) (-6.2752154, 53.3301847) 0.009953584564044856
(-6.2412836, 53.3474679) (-6.241373, 53.347459) 0.009989399763387483
(-6.2645419, 53.3389073) (-6.2644541, 53.3388873) 0.01001007563922736
(-6.2739454, 53.2812453) (-6.2739878, 53.2811646) 0.010089060750206536
(-6.2828316, 53.3724237) (-6.2828229, 53.3725149) 0.010126397214626723
(-6.3457337, 53.412451) (-6.3456732, 53.4125203) 0.010193667048405365
(-6.2988724, 53.3901423) (-6.2989059, 53.3900563) 0.010208908344068372
(-6.3741574, 53.331986) (-6.3741947, 53.3319009) 0.010278201863470324
(-6.1144274, 53.2680645) (-6.1144341, 53.2679717) 0.010287213162013142
(-6.1925184, 53.2826687) (-6.1924783, 53.2827528) 0.010310921669399495
(-6.3539849, 53.4173497) (-6.3539491, 53.4172628) 0.010395852915999976
(-6.0576789, 53.3651485) (-6.0577669, 53.3651811) 0.010428014542072839
(-6.2005488, 53.3893209) (-6.2005005, 53.3894021) 0.010460267278431837
(-6.3697522, 53.270691) (-6.3698463, 53.2706923) 0.01046444322355341
(-6.3249609, 53.2998783) (-6.3250148, 53.2999561) 0.010481035588130887
(-6.352144, 53.3509293) (-6.3521207, 53.3510212) 0.010481348791938743
(-6.3794488, 53.3924026) (-6.3795373, 53.3923683) 0.010545500629645148
(-6.3768299, 53.4033287) (-6.3768455, 53.4034229) 0.010553306791879102
(-6.262284, 53.3977719) (-6.2621888, 53.3977726) 0.01058605439341614
(-6.1989416, 53.6080076) (-6.1988568, 53.6080529) 0.010676582630410245
(-6.2918301, 53.3470635) (-6.2918553, 53.3471568) 0.01068594510448478
(-6.2572992, 53.3478488) (-6.2572048, 53.3478676) 0.010700526993860981
(-6.1923978, 53.2826437) (-6.1923397, 53.2827213) 0.010738995619257776
(-6.3707604, 53.4214872) (-6.3708394, 53.4214305) 0.010790109629249044
(-6.2488192, 53.3434722) (-6.2488636, 53.3433816) 0.011165265428133992
(-6.4150922, 53.3893177) (-6.4150485, 53.3894094) 0.01123764033014337
(-6.3892624, 53.4186717) (-6.3893265, 53.4187505) 0.011252894068209188
(-6.2138674, 53.3526509) (-6.2139687, 53.3526507) 0.011264083324057143
(-6.3657348, 53.3824113) (-6.3658317, 53.3823803) 0.011306301365687742
(-6.1242397, 53.2492124) (-6.1243084, 53.249288) 0.011323350041664995
(-6.1120436, 53.2720079) (-6.1119682, 53.2719388) 0.011342901594338463
(-6.2708014, 53.3983677) (-6.2707768, 53.398468) 0.011418617597913043
(-6.3846298, 53.4185381) (-6.3845539, 53.4184674) 0.011500759165032215
(-6.2277662, 53.3331249) (-6.2278369, 53.3330478) 0.011594690429376383
(-6.461887, 53.283657) (-6.4619531, 53.2835747) 0.011692261956573538
(-6.3534792, 53.2847424) (-6.3534241, 53.2848329) 0.011728821219096113
(-6.2161488, 53.3430236) (-6.2160588, 53.34308) 0.011790698410078066
(-6.3732292, 53.2674166) (-6.3732513, 53.2675227) 0.011979642083594451
(-6.2908446, 53.406636) (-6.2908729, 53.4067406) 0.011981589152768755
(-6.1959845, 53.2922326) (-6.1960888, 53.2922049) 0.011995079707782873
(-6.2917692, 53.3477525) (-6.2918037, 53.3476495) 0.012013099845687727
(-6.3680667, 53.3715907) (-6.367998, 53.371506) 0.01208170454822654
(-6.1959698, 53.350406) (-6.1960227, 53.3503103) 0.012104550585586056
(-6.267205, 53.3842525) (-6.2672038, 53.3841429) 0.012114881413226126
(-6.3755118, 53.3310419) (-6.3754847, 53.330935) 0.012191519515965601
(-6.0662332, 53.3834087) (-6.0661235, 53.3834053) 0.012203892272392766
(-6.2595524, 53.3474831) (-6.2594736, 53.3474058) 0.012238379264232505
(-6.305509, 53.4243107) (-6.3056116, 53.4243515) 0.012267453178240831
(-6.3999734, 53.4063786) (-6.4000078, 53.4064842) 0.012279965587531605
(-6.3392838, 53.2855608) (-6.3392194, 53.2854702) 0.012309876762767985
(-6.2469748, 53.3414522) (-6.247007, 53.3413455) 0.012325575000402562
(-6.3732851, 53.3874525) (-6.3732734, 53.3875638) 0.012368140477654985
(-6.2224056, 53.3622137) (-6.2223347, 53.3621265) 0.012452519157029364
(-6.40742, 53.4014395) (-6.4074471, 53.4013299) 0.01248011572780919
(-6.3861152, 53.3693508) (-6.386193, 53.3694328) 0.012527916843765417
(-6.1784558, 53.3028273) (-6.1785227, 53.3027361) 0.012529423911711237
(-6.2989909, 53.3364886) (-6.2988791, 53.3364708) 0.012586313534942831
(-6.1684627, 53.37145) (-6.1684393, 53.3715615) 0.012598097501781643
(-6.309265, 53.2960541) (-6.3091517, 53.2960587) 0.012608656461650157
(-6.3516802, 53.4293935) (-6.351608, 53.4293051) 0.012644869317325945
(-6.2115744, 53.2651165) (-6.2116689, 53.2650526) 0.012661431795823862
(-6.3328245, 53.3756923) (-6.3327104, 53.375687) 0.012700872349508603
(-6.2545163, 53.3447512) (-6.2544815, 53.3446416) 0.01271744491229674
(-6.3092354, 53.295779) (-6.3093503, 53.2957746) 0.012785566104312583
(-6.4134925, 53.4032941) (-6.4135486, 53.4033952) 0.01279511078376027
(-6.2795985, 53.2980015) (-6.279694, 53.2979369) 0.01279636600622638
(-6.4087808, 53.4040906) (-6.4088683, 53.4040152) 0.012809449272330617
(-6.3058092, 53.3568362) (-6.3057692, 53.3567275) 0.012810691241128914
(-6.3537264, 53.2855107) (-6.3536112, 53.2855075) 0.012814553793068811
(-6.2197226, 53.3106535) (-6.2196769, 53.3107608) 0.01290372755950521
(-6.1704473, 53.261505) (-6.1703856, 53.2614058) 0.01293588273266536
(-6.3798911, 53.3241695) (-6.3798749, 53.3242856) 0.012955640979456517
(-6.2811842, 53.3635599) (-6.2812068, 53.3636749) 0.01295671062066347
(-6.2342251, 53.336338) (-6.2342315, 53.3364559) 0.013051787280063365
(-6.2889606, 53.4249249) (-6.2889695, 53.4250429) 0.013079551199439468
(-6.3450329, 53.4124729) (-6.345014, 53.4123556) 0.013132533934645247
(-6.2410792, 53.2790759) (-6.2411926, 53.2791138) 0.013287227597313362
(-6.1070605, 53.5807393) (-6.1071385, 53.580648) 0.0133087758529526
(-6.1337773, 53.2942886) (-6.1337118, 53.2941875) 0.01334098440750941
(-6.1522925, 53.2889606) (-6.1522065, 53.2888764) 0.0133453606748039
(-6.187502, 53.6022969) (-6.1875747, 53.6022003) 0.0133935585970475
(-6.2084623, 53.3189314) (-6.2085147, 53.318821) 0.013523521241333276
(-6.1193524, 53.2431492) (-6.119391, 53.2432657) 0.013576723587003006
(-6.3586409, 53.4153481) (-6.3586518, 53.4152257) 0.013580741297402053
(-6.2950311, 53.3398735) (-6.2951208, 53.3397889) 0.01367166023109659
(-6.1359644, 53.4238699) (-6.1358787, 53.423781) 0.013689828897416923
(-6.2611234, 53.3520535) (-6.2612204, 53.3519763) 0.013753151375275274
(-6.2421795, 53.336072) (-6.2422172, 53.336191) 0.013805607415910054
(-6.2554266, 53.2751793) (-6.2555429, 53.275135) 0.013827983361713803
(-6.3869322, 53.4012674) (-6.386914, 53.4011429) 0.013905911703550435
(-6.4041872, 53.403055) (-6.4043111, 53.4030731) 0.013921492580188238
(-6.1424583, 53.2789121) (-6.1423579, 53.2789877) 0.013946046369727454
(-6.2368015, 53.3221498) (-6.2369251, 53.322172) 0.013961065206787198
(-6.4005624, 53.3767082) (-6.400622, 53.3768195) 0.01397076714676126
(-6.1952997, 53.2597087) (-6.195337, 53.2598294) 0.013972630025406557
(-6.4001012, 53.3149604) (-6.4001782, 53.3148603) 0.013987838464846022
(-6.3544297, 53.4283434) (-6.3543542, 53.4282402) 0.01416156941125526
(-6.3703337, 53.2848998) (-6.3702652, 53.2847916) 0.01417698690293871
(-6.2518069, 53.3493947) (-6.2518396, 53.349519) 0.014212347065516743
(-6.3104893, 53.4033124) (-6.3105818, 53.4032236) 0.014216637797536484
(-6.3729518, 53.3876607) (-6.372926, 53.3875342) 0.014270591292144532
(-6.2088243, 53.2977714) (-6.2089354, 53.2978362) 0.014280294204234673
(-6.3621576, 53.287305) (-6.3622859, 53.2872959) 0.01430172911554235
(-6.30015, 53.2821022) (-6.3000467, 53.2821794) 0.014308764062888345
(-6.357761, 53.4154704) (-6.3576606, 53.415552) 0.01435108989303714
(-6.4039017, 53.3099566) (-6.4040031, 53.3100383) 0.014444155447270854
(-6.4008325, 53.3766908) (-6.4007955, 53.3768165) 0.014486595627284398
(-6.3969532, 53.4119102) (-6.3969193, 53.4120368) 0.014488600429601957
(-6.3884827, 53.3754636) (-6.3884771, 53.3753326) 0.014489488169124326
(-6.2578302, 53.2807292) (-6.2578886, 53.2806118) 0.014510662862175163
(-6.420207, 53.4038561) (-6.4201309, 53.4039629) 0.014521427344980244
(-6.2896014, 53.3756543) (-6.2895444, 53.3757726) 0.014530403654224098
(-6.376434, 53.3217983) (-6.3764051, 53.3219268) 0.014559250801026654
(-6.3642137, 53.4142036) (-6.3642815, 53.4143168) 0.014605813709976252
(-6.4156243, 53.3212587) (-6.4155784, 53.3211348) 0.014611198161069868
(-6.1350996, 53.2798751) (-6.1351343, 53.2797476) 0.014614715062207084
(-6.368471, 53.4217343) (-6.36853, 53.4218525) 0.014617116873702127
(-6.3530467, 53.2878293) (-6.3530473, 53.2876966) 0.01466512385140771
(-6.3840557, 53.3751443) (-6.3840364, 53.375276) 0.01471095901941884
(-6.2541576, 53.271863) (-6.2541995, 53.2719894) 0.014727770053828393
(-6.3820597, 53.3195397) (-6.3819747, 53.3196426) 0.01478626204603829
(-6.4006712, 53.4076047) (-6.4006641, 53.407471) 0.014795190768939315
(-6.2044612, 53.2527041) (-6.2043846, 53.2528139) 0.014828096431765246
(-6.3429553, 53.3266782) (-6.3430844, 53.3267184) 0.015027028654746016
(-6.345124, 53.2851487) (-6.3452524, 53.2851916) 0.015044037169032642
(-6.314609, 53.3823842) (-6.3146595, 53.3822579) 0.015045876126911521
(-6.3909307, 53.2806981) (-6.3909699, 53.2805675) 0.015075717954306391
(-6.3749778, 53.3064042) (-6.3748833, 53.3063048) 0.01520114397111214
(-6.4040558, 53.3753341) (-6.4040937, 53.3752012) 0.015278333701234548
(-6.385612, 53.4006581) (-6.3856043, 53.40052) 0.015284769615601412
(-6.2384457, 53.3226046) (-6.2383222, 53.3225427) 0.015342751708839603
(-6.4150922, 53.3893177) (-6.4152286, 53.3893409) 0.015382134601567208
(-6.3879318, 53.418853) (-6.3880519, 53.4189224) 0.015399915899918447
(-6.4074048, 53.3158559) (-6.4074679, 53.3157298) 0.015600945102554779
(-6.4136714, 53.3442351) (-6.4137278, 53.3443648) 0.01564382321080024
(-6.3583098, 53.3802084) (-6.3582176, 53.3800983) 0.015910683347031808
(-6.1727821, 53.3722215) (-6.1727792, 53.3720771) 0.015966732751506077
(-6.2384691, 53.2478543) (-6.2383488, 53.247934) 0.016017176736310514
(-6.321058, 53.2932566) (-6.3211244, 53.2931275) 0.016065181837526202
(-6.3473971, 53.3284825) (-6.3473763, 53.3286268) 0.016113936977963105
(-6.3733806, 53.2674092) (-6.3733536, 53.2672656) 0.016150432641129957
(-6.3871631, 53.4012537) (-6.38711, 53.4011174) 0.01617779104032648
(-6.2949945, 53.3260864) (-6.2950651, 53.3262144) 0.016179315967970037
(-6.3626841, 53.2979053) (-6.3626521, 53.2980484) 0.01620937357100843
(-6.3618359, 53.4164413) (-6.3616945, 53.4164774) 0.016221212584648797
(-6.3651419, 53.3348221) (-6.3651215, 53.3349675) 0.01622742653904296
(-6.3859763, 53.3693996) (-6.3861152, 53.3693508) 0.016359357972173465
(-6.3111649, 53.4038931) (-6.3110248, 53.4039441) 0.01656679069335294
(-6.3627072, 53.4232835) (-6.3628571, 53.4232845) 0.016668508865272665
(-6.3810746, 53.4195885) (-6.3810102, 53.4194522) 0.016677622214786147
(-6.385372, 53.4005215) (-6.3853919, 53.4006715) 0.01672283458796961
(-6.4095895, 53.3541939) (-6.4095816, 53.3543452) 0.0167417161574597
(-6.3711465, 53.2690613) (-6.3711075, 53.2689147) 0.0167708998844231
(-6.3465256, 53.3347107) (-6.3463755, 53.3347284) 0.016804616321131862
(-6.4082055, 53.3134903) (-6.4082838, 53.3133595) 0.016873245727260032
(-6.3063722, 53.2618285) (-6.3062732, 53.2617125) 0.016898229635000483
(-6.3584865, 53.3801598) (-6.3583883, 53.3800431) 0.016898393802488212
(-6.368955, 53.2685938) (-6.3691055, 53.2685661) 0.01701251944324151
(-6.4130867, 53.3203177) (-6.4131519, 53.3201784) 0.017014459738950962
(-6.3909241, 53.4232361) (-6.3910675, 53.4232905) 0.017040896173583887
(-6.4072763, 53.2788265) (-6.4072795, 53.2789808) 0.017053943973806128
(-6.2368174, 53.3023885) (-6.2367504, 53.3025281) 0.01713528753718056
(-6.3703356, 53.4109466) (-6.3703599, 53.4111) 0.01716599768014634
(-6.2410807, 53.4712772) (-6.2410506, 53.4714303) 0.01725087096035953
(-6.2211205, 53.2612654) (-6.2210422, 53.2611304) 0.017277108476273045
(-6.2869916, 53.2997589) (-6.2869647, 53.2996037) 0.017412523290262962
(-6.3414599, 53.366553) (-6.3415125, 53.3667018) 0.01745375751582373
(-6.3680599, 53.3740598) (-6.3680596, 53.3739017) 0.017471504108515133
(-6.3859742, 53.3864945) (-6.3858317, 53.3865613) 0.017480378795427905
(-6.2478366, 53.4153373) (-6.247986, 53.4153874) 0.017511245106915072
(-6.2458994, 53.3494079) (-6.2460402, 53.3494802) 0.017577988860132485
(-6.3588191, 53.2619895) (-6.3589691, 53.261939) 0.017588153790317147
(-6.2135107, 53.2644621) (-6.2135775, 53.2643174) 0.017635920788219107
(-6.2591232, 53.3467217) (-6.2590067, 53.3466134) 0.017638262361186794
(-6.2578001, 53.2743179) (-6.2577544, 53.2741645) 0.01770079772256323
(-6.3536869, 53.2870376) (-6.3536436, 53.2871919) 0.017718719640547692
(-6.2025582, 53.2416645) (-6.2025317, 53.2418226) 0.01772369920767566
(-6.2981996, 53.3521569) (-6.2983579, 53.3521367) 0.017743201853932706
(-6.1069866, 53.5805955) (-6.1071385, 53.580648) 0.01786011226396986
(-6.2585026, 53.3607946) (-6.2584864, 53.3606334) 0.01790864558704609
(-6.4196069, 53.3989487) (-6.419717, 53.3988299) 0.017950003589728387
(-6.22734, 53.4225425) (-6.2273733, 53.4227014) 0.017950689310126406
(-6.2977025, 53.4018094) (-6.2976338, 53.4019573) 0.01804339883634526
(-6.4263324, 53.3447455) (-6.4264829, 53.3446797) 0.018246041957279642
(-6.0653499, 53.3830238) (-6.0653246, 53.3831869) 0.018252497019524958
(-6.1267339, 53.289224) (-6.1265801, 53.289284) 0.018343290571456634
(-6.2927038, 53.3118779) (-6.292592, 53.3117554) 0.018380923552334925
(-6.3874023, 53.3755102) (-6.3872631, 53.3754175) 0.01856111235927109
(-6.4132776, 53.351262) (-6.413333, 53.3511034) 0.01857632827027495
(-6.4300268, 53.4066498) (-6.4300899, 53.4064929) 0.018702758100139973
(-6.3911449, 53.4198371) (-6.3911435, 53.4196659) 0.01891892835881993
(-6.403435, 53.3269253) (-6.4035749, 53.3270234) 0.01896060773619893
(-6.3703495, 53.4268876) (-6.370434, 53.4270384) 0.019131024787706296
(-6.2410565, 53.3378253) (-6.2409573, 53.3379668) 0.01913921107633835
(-6.2012877, 53.4068516) (-6.2012241, 53.40669) 0.019212888354627297
(-6.3634635, 53.414845) (-6.3633584, 53.4147057) 0.01932752524385593
(-6.3909307, 53.2806981) (-6.3907666, 53.2806397) 0.019354689032628828
(-6.3832355, 53.4167214) (-6.383191, 53.416552) 0.019362607446092295
(-6.2552878, 53.3581237) (-6.2553789, 53.3582735) 0.019410737079935476
(-6.1510095, 53.2893497) (-6.1511407, 53.2892305) 0.0196595127045639
(-6.2918285, 53.4017698) (-6.2918058, 53.4015918) 0.019834768156678586
(-6.424838, 53.4120768) (-6.4249308, 53.4122302) 0.01984411471107557
(-6.2452784, 53.2539155) (-6.2450992, 53.2539252) 0.019954983888277374
(-6.4094131, 53.4138001) (-6.409337, 53.4136362) 0.019990284445068233
(-6.3917967, 53.3239715) (-6.3919112, 53.324111) 0.01999326896502695
(-6.2271167, 53.4216675) (-6.2272835, 53.4217378) 0.02010946386909804
(-6.1955257, 53.6128634) (-6.1954427, 53.6130256) 0.020166331429799563
(-6.3878461, 53.3718029) (-6.3880034, 53.37171) 0.020281100786815956
(-6.3721712, 53.4190286) (-6.3719933, 53.4190691) 0.020281585172865615
(-6.3906316, 53.3879369) (-6.3906806, 53.3881142) 0.02033588431258909
(-6.224825, 53.4220776) (-6.2248173, 53.4222648) 0.020710697011660895
(-6.260781, 53.3407197) (-6.2608297, 53.3405384) 0.020758208302996253
(-6.2015626, 53.4634267) (-6.2014664, 53.4632654) 0.02079333598175503
(-6.2371226, 53.4706235) (-6.2370258, 53.4707846) 0.020807781375729865
(-6.2753972, 53.4032884) (-6.2754357, 53.4031041) 0.02081544029963578
(-6.3600605, 53.3674941) (-6.3598738, 53.3674669) 0.020976606751721378
(-6.3786304, 53.3381031) (-6.3787916, 53.3382019) 0.020988021524749323
(-6.3649729, 53.3725321) (-6.3648951, 53.3727058) 0.02105487491749082
(-6.3775008, 53.2914766) (-6.3774786, 53.2916676) 0.02125069239273531
(-6.2145064, 53.3690671) (-6.2146875, 53.3690041) 0.021307629045969362
(-6.2522534, 53.4586658) (-6.2523633, 53.4585078) 0.021315235212838082
(-6.4012875, 53.4040428) (-6.4014053, 53.4038906) 0.021317500192774036
(-6.3107967, 53.3811815) (-6.3106368, 53.3812888) 0.021372085274770913
(-6.3478836, 53.2825574) (-6.3477508, 53.2824147) 0.021604549366825054
(-6.2321372, 53.4221406) (-6.2319499, 53.4220835) 0.021762237546058043
(-6.255177, 53.3481923) (-6.2553641, 53.3481342) 0.02177321909638857
(-6.3285175, 53.3012453) (-6.3284305, 53.3014232) 0.021912167313814533
(-6.3721416, 53.3549287) (-6.3722903, 53.3547976) 0.021983800528663004
(-6.3812368, 53.4191082) (-6.3812584, 53.4189104) 0.02198967944077467
(-6.3685229, 53.3857805) (-6.368463, 53.3859702) 0.02199621234549096
(-6.2358969, 53.3002553) (-6.2360935, 53.3002314) 0.02202000365705837
(-6.2246343, 53.330489) (-6.2247966, 53.3306032) 0.022023814124540818
(-6.2944643, 53.4067819) (-6.2943382, 53.4066264) 0.022180786412200164
(-6.4023197, 53.4042995) (-6.402445, 53.4041427) 0.022233625629576807
(-6.3657704, 53.2984894) (-6.3658384, 53.2986804) 0.022420778541569486
(-6.4135829, 53.2780236) (-6.4136876, 53.2778501) 0.022429654923208427
(-6.4131519, 53.3201784) (-6.4133486, 53.32023) 0.022603044451628834
(-6.3636468, 53.3751558) (-6.3635844, 53.3749606) 0.022659992255932203
(-6.3609942, 53.3384442) (-6.3611887, 53.3383822) 0.022686811422934303
(-6.4144115, 53.2880309) (-6.4143808, 53.2878274) 0.022744184200563594
(-6.3728611, 53.3069856) (-6.3727094, 53.3071244) 0.02279932325163368
(-6.2441363, 53.4109966) (-6.2441735, 53.4111999) 0.02284938194029436
(-6.2132273, 53.2779338) (-6.2130223, 53.2779539) 0.022903022590846835
(-6.2859616, 53.2995765) (-6.2861298, 53.2994563) 0.02294126411116398
(-6.3034274, 53.4030222) (-6.3035012, 53.4032165) 0.022989117163757438
(-6.3994995, 53.4032388) (-6.3996818, 53.4031396) 0.023044941608208178
(-6.3718459, 53.4258204) (-6.3718572, 53.4260307) 0.023273812925141534
(-6.1987456, 53.2690095) (-6.1985589, 53.2689143) 0.02327519571413572
(-6.4226327, 53.2879615) (-6.422807, 53.2880804) 0.023414630968426216
(-6.348154, 53.3002808) (-6.348187, 53.3000715) 0.023419680833919022
(-6.2737823, 53.4019489) (-6.2739655, 53.401843) 0.023494317641237106
(-6.4491926, 53.3897391) (-6.4490493, 53.3898954) 0.023497805700880656
(-6.3812517, 53.3776115) (-6.381378, 53.377782) 0.023499503797274043
(-6.3582046, 53.3215131) (-6.3580596, 53.321356) 0.02369335487578144
(-6.3078404, 53.3366865) (-6.3076426, 53.3366063) 0.023713309133452206
(-6.1809223, 53.2489765) (-6.1808401, 53.2487773) 0.02384285180916891
(-6.3915651, 53.3915452) (-6.3913849, 53.3916632) 0.023906551382397057
(-6.2146794, 53.3821502) (-6.2148875, 53.3820943) 0.023950552830022207
(-6.2520996, 53.3547909) (-6.2522658, 53.3546529) 0.023962623258228965
(-6.2371771, 53.2483109) (-6.2372084, 53.2480964) 0.023964242596470356
(-6.2276136, 53.4237184) (-6.2276174, 53.4234964) 0.024543272288592467
(-6.3893502, 53.3903331) (-6.3895714, 53.3903305) 0.02459802974087717
(-6.2562991, 53.3448903) (-6.2563013, 53.3446675) 0.024627932292504356
(-6.2145649, 53.408704) (-6.2143477, 53.4086549) 0.02475393295604329
(-6.2464787, 53.3414109) (-6.2464959, 53.3416342) 0.024756434476191008
(-6.1836914, 53.2530902) (-6.1837812, 53.2528847) 0.024815267567944558
(-6.2518073, 53.3437185) (-6.2518803, 53.3435056) 0.024893269657564783
(-6.2352113, 53.4702578) (-6.2352369, 53.470482) 0.02494540978705838
(-6.2073421, 53.3170638) (-6.2071868, 53.3172267) 0.024949425734305967
(-6.2810685, 53.2912136) (-6.2808438, 53.2912448) 0.025222387349016814
(-6.2999203, 53.3884746) (-6.2999792, 53.3882537) 0.02527785722325525
(-6.3770601, 53.391832) (-6.3770032, 53.3920539) 0.02532460747016374
(-6.2624094, 53.2747263) (-6.2622379, 53.2748778) 0.025378654261902854
(-6.3164634, 53.3815314) (-6.3162492, 53.3816133) 0.02547994957736641
(-6.393138, 53.4082885) (-6.3930847, 53.4085141) 0.02562442642137659
(-6.1292581, 53.2416772) (-6.1292001, 53.2419016) 0.025634096627718598
(-6.2478366, 53.4153373) (-6.2476168, 53.4152655) 0.025696945921941643
(-6.3539849, 53.4173497) (-6.3542146, 53.4173232) 0.025708855276976455
(-6.2486651, 53.3098107) (-6.2484952, 53.309649) 0.026007088154224808
(-6.2669839, 53.3253197) (-6.2670283, 53.3255516) 0.02610318151494243
(-6.3812807, 53.422304) (-6.3814447, 53.4221333) 0.02623698089421228
(-6.2563664, 53.3440165) (-6.2562784, 53.3437961) 0.026253173698817175
(-6.3776442, 53.2912852) (-6.3775008, 53.2914766) 0.02648812982923993
(-6.3947608, 53.3557519) (-6.3947306, 53.3559897) 0.026491371043199104
(-6.2224017, 53.4231262) (-6.2226276, 53.42305) 0.02649362124715997
(-6.171732, 53.4092337) (-6.1718668, 53.4090358) 0.02652014828399498
(-6.2285638, 53.4143566) (-6.2287996, 53.4144101) 0.026878451622350974
(-6.3774105, 53.4194759) (-6.3771876, 53.4195724) 0.02698211534241003
(-6.4136019, 53.2785945) (-6.4137913, 53.278749) 0.027110799241800515
(-6.4089747, 53.4036698) (-6.4090248, 53.4039111) 0.027239435759758176
(-6.3855022, 53.39268) (-6.3856139, 53.3929004) 0.02733956338434838
(-6.2188698, 53.4639493) (-6.2186422, 53.4638539) 0.027417226561158574
(-6.2757253, 53.368916) (-6.2758682, 53.3691184) 0.027439882756140975
(-6.4365207, 53.4022753) (-6.4363768, 53.4024772) 0.027453828360234935
(-6.2906328, 53.3760073) (-6.2907481, 53.3762271) 0.02746903045046075
(-6.3683542, 53.3799526) (-6.3681426, 53.3798242) 0.02747627696072859
(-6.2304079, 53.3179061) (-6.2306559, 53.3179056) 0.027576435283648667
(-6.3283502, 53.2816737) (-6.3282346, 53.2818945) 0.027580790613747224
(-6.1760692, 53.2517988) (-6.1758292, 53.2517334) 0.027648843202535262
(-6.178002, 53.2487715) (-6.1777804, 53.2488914) 0.0279796694732869
(-6.2561613, 53.2802675) (-6.2561669, 53.2800141) 0.02801595053218097
(-6.2524888, 53.2745344) (-6.2524851, 53.2747881) 0.028045404595257978
(-6.4067447, 53.3776845) (-6.4064995, 53.3776232) 0.02809385968686427
(-6.2472001, 53.4155847) (-6.2474493, 53.4156363) 0.028290718612698326
(-6.2183023, 53.4475278) (-6.2180642, 53.4476189) 0.028326049755514296
(-6.2217902, 53.2943079) (-6.2219661, 53.2944976) 0.028675442843448702
(-6.3896665, 53.3184844) (-6.3899145, 53.3185622) 0.028885449345218212
(-6.3879593, 53.3989327) (-6.3878546, 53.3986924) 0.028994293332325585
(-6.4312943, 53.3404156) (-6.4315534, 53.3403675) 0.029296768246843477
(-6.4228445, 53.3833713) (-6.4227395, 53.3831281) 0.02929966249947662
(-6.3758553, 53.4073651) (-6.3757071, 53.4075858) 0.02943438251053482
(-6.2419698, 53.2810359) (-6.2419863, 53.2813028) 0.02955901834433039
(-6.4338841, 53.347798) (-6.4337067, 53.347595) 0.029870385910145302
(-6.2904536, 53.5861558) (-6.2901888, 53.5861074) 0.029926452762749824
(-6.1213992, 53.3915828) (-6.1216623, 53.3915237) 0.029976242941723914
(-6.4249308, 53.4122302) (-6.4251253, 53.4120348) 0.030560101093745583
(-6.2042871, 53.5108822) (-6.2044587, 53.5106653) 0.030642803059898936
(-6.1054284, 53.5854288) (-6.1051518, 53.5854296) 0.03075668637938327
(-6.3729251, 53.3353979) (-6.373198, 53.3353345) 0.031143446033221917
(-6.2464721, 53.3400012) (-6.2462046, 53.3399146) 0.03124701038638931
(-6.2645161, 53.3336671) (-6.2644146, 53.3334029) 0.03130744483792892
(-6.3588341, 53.3310275) (-6.3590137, 53.3312472) 0.03143737735725652
(-6.2211465, 53.598794) (-6.2211895, 53.5985123) 0.03150413885382456
(-6.4218005, 53.2855125) (-6.4215155, 53.2855371) 0.03180696152875853
(-6.2218026, 53.4592696) (-6.2215157, 53.4592723) 0.03190326460443432
(-6.2748823, 53.3470426) (-6.2747028, 53.3472686) 0.031974358395308364
(-6.4531011, 53.3610263) (-6.4533788, 53.3611052) 0.032085872279524495
(-6.3075536, 53.3060935) (-6.3076162, 53.3063778) 0.032183174360649304
(-6.2202341, 53.4241053) (-6.2203711, 53.4243623) 0.032235563042555634
(-6.3601317, 53.3723704) (-6.3603715, 53.3722045) 0.032359313475365845
(-6.2200049, 53.5987532) (-6.2198028, 53.5989675) 0.032652338641880586
(-6.4118532, 53.3285516) (-6.4120659, 53.328347) 0.03271864436053811
(-6.0654099, 53.3836581) (-6.065325, 53.3833734) 0.03286508952006156
(-6.2628933, 53.2750265) (-6.262916, 53.275323) 0.03286963330353669
(-6.2743236, 53.3961516) (-6.2740972, 53.3963434) 0.032911645045249814
(-6.3158187, 53.3808225) (-6.3158416, 53.3811218) 0.03317655742221634
(-6.1945454, 53.5990977) (-6.1944468, 53.5993814) 0.03322306094076249
(-6.3226172, 53.3024254) (-6.3227651, 53.3026902) 0.03356968878479958
(-6.3134933, 53.3786684) (-6.3137385, 53.3784894) 0.03368615484078542
(-6.3168487, 53.3028292) (-6.3165553, 53.3027488) 0.0338130818264818
(-6.3758553, 53.4073651) (-6.3761502, 53.4074407) 0.033838927331795825
(-6.3639379, 53.3744932) (-6.3640283, 53.3742001) 0.03391436664149338
(-6.4161548, 53.3911621) (-6.4159617, 53.3909239) 0.03396792566392148
(-6.3840835, 53.39928) (-6.3843614, 53.3991501) 0.034072499322203804
(-6.3434475, 53.327782) (-6.343709, 53.3276123) 0.03460093066378193
(-6.328642, 53.3432123) (-6.3288933, 53.3430264) 0.034683341280241045
(-6.3196634, 53.2892604) (-6.3194156, 53.2890661) 0.03493364996241259
(-6.5115608, 53.2731467) (-6.5118066, 53.2733465) 0.03513206283974268
(-6.255429, 53.2796078) (-6.2556815, 53.2794118) 0.03546341072718226
(-6.4203197, 53.3990919) (-6.4200021, 53.3990395) 0.03578705970128247
(-6.375551, 53.3874674) (-6.3754517, 53.387159) 0.03582453949507997
(-6.2401463, 53.2872716) (-6.240441, 53.2871402) 0.03584382449059674
(-6.3078771, 53.3463365) (-6.3078583, 53.3460117) 0.03595832736809448
(-6.4210714, 53.3980773) (-6.4208247, 53.397862) 0.03631081341451818
(-6.2438206, 53.2897611) (-6.2439343, 53.2900694) 0.03634774101366866
(-6.2999172, 53.3723718) (-6.2995908, 53.3723905) 0.036352874014846735
(-6.4124759, 53.3190223) (-6.4127966, 53.318956) 0.03640502934345007
(-6.2523252, 53.3418894) (-6.2521267, 53.3416272) 0.0364298741244662
(-6.3578984, 53.2897791) (-6.3581695, 53.2895919) 0.03656091655716423
(-6.3828333, 53.3984608) (-6.3829093, 53.3981373) 0.036733919434514525
(-6.384459, 53.3771892) (-6.3843628, 53.3775092) 0.036944262466083067
(-6.328036, 53.285277) (-6.3280988, 53.2849482) 0.03700305787510854
(-6.289364, 53.3520334) (-6.2891966, 53.3517428) 0.03712278500019213
(-6.2012588, 53.3896584) (-6.2011394, 53.3899731) 0.03723572132780809
(-6.3312, 53.3349512) (-6.3312325, 53.3346151) 0.03732011401710882
(-6.4129162, 53.3197638) (-6.413176, 53.3195447) 0.03769200789070925
(-6.145427, 53.2553977) (-6.1456902, 53.2551783) 0.038011631724468586
(-6.4595114, 53.3536584) (-6.4591677, 53.3536399) 0.03827237236214457
(-6.1541735, 53.4160663) (-6.1544047, 53.4158065) 0.0385469797333658
(-6.2526357, 53.344712) (-6.2527911, 53.3444002) 0.03855362280741752
(-6.433084, 53.3478805) (-6.4332216, 53.3482022) 0.038699313348851586
(-6.1957196, 53.3453155) (-6.1957522, 53.3456646) 0.038761340656993576
(-6.3096134, 53.2594903) (-6.3094808, 53.2591631) 0.03905299314669429
(-6.3497558, 53.3700753) (-6.3494152, 53.3699842) 0.03918834903200945
(-6.4420031, 53.3987234) (-6.442261, 53.3989681) 0.03941339520834638
(-6.4237838, 53.3896067) (-6.4240372, 53.3898582) 0.0395754556091459
(-6.2659076, 53.3979932) (-6.2662179, 53.3981699) 0.03964802901743295
(-6.3561561, 53.285843) (-6.3564874, 53.2857098) 0.039671011197058285
(-6.3896656, 53.3728578) (-6.3893251, 53.3727506) 0.039671837612478736
(-6.3027567, 53.3282332) (-6.3024744, 53.3280124) 0.039760348063804435
(-6.4135566, 53.3847998) (-6.4139111, 53.3847504) 0.03979481589907358
(-6.263523, 53.275521) (-6.2635249, 53.2758818) 0.03988025766245533
(-6.2995772, 53.3758239) (-6.2996483, 53.3761872) 0.04092416438650875
(-6.2435377, 53.2890649) (-6.2435908, 53.2894341) 0.041234643087578536
(-6.1654377, 53.525552) (-6.1657083, 53.5258136) 0.04173439110041084
(-6.1196569, 53.389397) (-6.1192816, 53.3893875) 0.04174472936409242
(-6.284675, 53.2996827) (-6.2844451, 53.2993822) 0.04191216801069796
(-6.2006883, 53.3775876) (-6.2003364, 53.3777239) 0.04193021496851938
(-6.2435594, 53.2915469) (-6.2437468, 53.2912169) 0.042009184511007804
(-6.4147227, 53.2766174) (-6.4147509, 53.2762364) 0.04221670065185049
(-6.1332391, 53.3927427) (-6.1336193, 53.3927367) 0.042281573452863715
(-6.3924763, 53.3970285) (-6.3923287, 53.3966756) 0.042309749443286
(-6.3789672, 53.3370273) (-6.3789125, 53.336646) 0.04257291909209742
(-6.366848, 53.3781313) (-6.3664755, 53.378229) 0.04280420839392299
(-6.2440615, 53.3614943) (-6.2440012, 53.3611114) 0.04285184209489252
(-6.1410501, 53.3860536) (-6.1412646, 53.3857314) 0.04286927546347613
(-6.1300348, 53.2524471) (-6.1297555, 53.2527229) 0.04352357617656292
(-6.41399, 53.3200045) (-6.4141275, 53.3203768) 0.04388808776098994
(-6.251418, 53.3421743) (-6.2513055, 53.3425559) 0.04399563578886312
(-6.4150786, 53.2936327) (-6.4149742, 53.2932477) 0.04409750628457698
(-6.4234233, 53.3982674) (-6.4236954, 53.3979743) 0.04432079536323101
(-6.2441302, 53.3549031) (-6.2439208, 53.3552451) 0.044398559692696946
(-6.2568664, 53.2732896) (-6.2568576, 53.2736945) 0.044765395687377134
(-6.3609461, 53.2990438) (-6.3606111, 53.2992718) 0.0449716321958051
(-6.3907218, 53.3953122) (-6.3906562, 53.3957144) 0.045039366441360036
(-6.2727477, 53.3999348) (-6.2731533, 53.3999119) 0.04517169389713791
(-6.3124268, 53.2995137) (-6.3122928, 53.2999007) 0.04529264914871908
(-6.3045602, 53.3870605) (-6.3042818, 53.3873623) 0.04550739003177996
(-6.249969, 53.3579633) (-6.2497764, 53.3583296) 0.0458037714603628
(-6.3684708, 53.2662742) (-6.3680606, 53.2663136) 0.045819565281653325
(-6.262669, 53.3063823) (-6.2627712, 53.3059793) 0.04597095067148402
(-6.4093969, 53.2911934) (-6.4098165, 53.2912012) 0.046665415900393296
(-6.3630018, 53.4144645) (-6.3633935, 53.4146188) 0.04677401327817935
(-6.3131549, 53.2792211) (-6.313062, 53.2796363) 0.047036566508880204
(-6.1980035, 53.3473054) (-6.1976198, 53.3471245) 0.04711957234119638
(-6.2618553, 53.2741504) (-6.2616328, 53.2745137) 0.04716598183486096
(-6.2721646, 53.3953524) (-6.2721419, 53.3957812) 0.047462209812232016
(-6.1277402, 53.204678) (-6.1276388, 53.2042573) 0.04785960400694306
(-6.2324916, 53.457694) (-6.2325472, 53.4581254) 0.04808513771887853
(-6.1252781, 53.2521804) (-6.1252007, 53.2517498) 0.048378945467738396
(-6.2572328, 53.4009544) (-6.2569141, 53.4012655) 0.04937903445188163
(-6.3855663, 53.3789805) (-6.3856408, 53.3785367) 0.04973694783016568
(-6.3624565, 53.2860715) (-6.3624339, 53.2865212) 0.04975993605855453
(-6.3129346, 53.3014659) (-6.3127851, 53.3010348) 0.050462288869159044
(-6.1300451, 53.2419921) (-6.1304456, 53.2417713) 0.05078547504304469
(-6.270699, 53.3928816) (-6.270719, 53.3924217) 0.050881275190636344
(-6.1261882, 53.2724224) (-6.1261428, 53.2719641) 0.0509205443113985
(-6.3901743, 53.3950939) (-6.3897279, 53.3949767) 0.051299228255053016
(-6.4637856, 53.3415972) (-6.4635042, 53.3419653) 0.05131462720330169
(-6.1980766, 53.2415601) (-6.1983517, 53.241184) 0.051616835219649986
(-6.3436961, 53.3485207) (-6.3436218, 53.3489834) 0.05179806116166947
(-6.2541038, 53.3538998) (-6.253948, 53.3543424) 0.051898887786233985
(-6.0848815, 53.39051) (-6.0848789, 53.3909835) 0.05235503117437569
(-6.359263, 53.3691683) (-6.358805, 53.3692815) 0.05244130715786732
(-6.2904791, 53.379745) (-6.2904133, 53.3792748) 0.05248165814211804
(-6.343745, 53.3706111) (-6.3433493, 53.3708709) 0.052539003488597164
(-6.2472001, 53.4155847) (-6.2467335, 53.4155072) 0.05258606772519339
(-6.3418967, 53.4454576) (-6.3418974, 53.4449779) 0.05301391848165031
(-6.2029716, 53.2470152) (-6.203362, 53.2467387) 0.053091636457018046
(-6.2944335, 53.3843021) (-6.29483, 53.3840339) 0.05312737454385978
(-6.3647205, 53.3006341) (-6.3648891, 53.3001808) 0.053487211415608964
(-6.26848, 53.3638655) (-6.2682966, 53.3643134) 0.05354228818501504
(-6.300407, 53.3869273) (-6.3005563, 53.3873899) 0.053755888806141724
(-6.2461976, 53.4041364) (-6.2461534, 53.4036461) 0.05441770124214604
(-6.2746263, 53.4005532) (-6.2742714, 53.4002061) 0.0550380110536966
(-6.3711173, 53.3827228) (-6.3711692, 53.3832204) 0.05529094783118073
(-6.3446136, 53.2988326) (-6.3444833, 53.2993167) 0.05542704189911157
(-6.2249262, 53.3089149) (-6.22464, 53.3093257) 0.05545090511356228
(-6.1642971, 53.3758714) (-6.1644539, 53.3753941) 0.05557247719710802
(-6.3450366, 53.3104238) (-6.3454157, 53.3107557) 0.055878034792607945
(-6.4104769, 53.2832902) (-6.4105653, 53.282791) 0.056030477715580576
(-6.3622904, 53.3230218) (-6.3619627, 53.3234138) 0.05660740516894904
(-6.150396, 53.386917) (-6.1506768, 53.3873535) 0.05747761043819597
(-6.2973386, 53.380176) (-6.2977278, 53.3805208) 0.05766440105116068
(-6.2274151, 53.296509) (-6.227026, 53.2961624) 0.05779116415323455
(-6.2860395, 53.3038435) (-6.2863159, 53.3042872) 0.05787555658318591
(-6.4273918, 53.3168193) (-6.4272096, 53.3173185) 0.058762651614935206
(-6.3731748, 53.3856193) (-6.3737016, 53.3856906) 0.05910510498995498
(-6.1937115, 53.2899152) (-6.1936458, 53.2904458) 0.05910891542787314
(-6.1843885, 53.6034166) (-6.1849199, 53.6034569) 0.05925677532533769
(-6.2464567, 53.325434) (-6.2469237, 53.3251617) 0.06002046583131626
(-6.14031, 53.3874356) (-6.140602, 53.3869777) 0.06014177804394916
(-6.3648383, 53.3748805) (-6.3649921, 53.3754107) 0.061037045414289545
(-6.293684, 53.2423744) (-6.2934053, 53.2428517) 0.06118269302703156
(-6.4252288, 53.3926958) (-6.424706, 53.3925156) 0.061448262957883366
(-6.2475037, 53.3249896) (-6.2473479, 53.3244513) 0.06197158614780445
(-6.2791196, 53.2831132) (-6.2796679, 53.2829996) 0.062247743259411854
(-6.3262215, 53.2920632) (-6.326072, 53.2915191) 0.06238833516052065
(-6.2250616, 53.3892129) (-6.2246556, 53.3888097) 0.06343919229684719
(-6.3640419, 53.3226181) (-6.3642362, 53.3220765) 0.06363224189606032
(-6.1547772, 53.3858957) (-6.1546211, 53.386453) 0.06401017408532264
(-6.4147538, 53.4012927) (-6.4152582, 53.4010076) 0.06432870300058591
(-6.3632707, 53.3736832) (-6.3634138, 53.3742536) 0.06501224630894106
(-6.1456023, 53.3993065) (-6.1458962, 53.3987967) 0.06515068389014196
(-6.3141211, 53.364356) (-6.3138772, 53.3648926) 0.06521230254008603
(-6.4217486, 53.3525708) (-6.4223385, 53.3525915) 0.06563384526604525
(-6.1951678, 53.6137086) (-6.1952413, 53.6131071) 0.0669936275653764
(-6.3041508, 53.3886816) (-6.3035507, 53.3886187) 0.06708932109444482
(-6.4121897, 53.3173212) (-6.4127396, 53.3175817) 0.0675828110997869
(-6.2414112, 53.4714583) (-6.2413826, 53.4720747) 0.06820856188640946
(-6.2789944, 53.3048121) (-6.2790182, 53.3054377) 0.06919696183065979
(-6.4566838, 53.3706244) (-6.4568736, 53.3712248) 0.06961430401390391
(-6.328564, 53.3407422) (-6.3283847, 53.3401377) 0.06971929623758245
(-6.1065425, 53.5793124) (-6.1071593, 53.579194) 0.06982326349623812
(-6.302633, 53.3261407) (-6.3026709, 53.3267722) 0.06992239200536246
(-6.2422799, 53.4594587) (-6.2425714, 53.4588941) 0.07032387137157378
(-6.3782781, 53.3872992) (-6.3777084, 53.3870144) 0.07073512181292069
(-6.2934929, 53.3460192) (-6.2933797, 53.34665) 0.07084630765456432
(-6.2565553, 53.3869394) (-6.2567234, 53.386317) 0.07128969747442267
(-6.3762208, 53.4059463) (-6.3755779, 53.4059144) 0.07157418123544254
(-6.3907347, 53.326735) (-6.3907306, 53.3273828) 0.07158601215499209
(-6.4081895, 53.3095938) (-6.4086443, 53.309122) 0.07263219853016553
(-6.3782102, 53.3342493) (-6.3779104, 53.3348337) 0.07267674941855796
(-6.2619705, 53.3080435) (-6.262348, 53.3075063) 0.07271652642816881
(-6.2220007, 53.3049092) (-6.2213883, 53.304673) 0.07292981118175249
(-6.1777058, 53.2586505) (-6.1782288, 53.2582445) 0.0734608228047506
(-6.2452751, 53.2501011) (-6.2454663, 53.2494647) 0.07348719251828383
(-6.3574938, 53.2858765) (-6.3572439, 53.2864955) 0.07383496220220204
(-6.3116052, 53.3479611) (-6.3114926, 53.3472994) 0.07419586986774089
(-6.2565684, 53.4032124) (-6.2566058, 53.4038895) 0.07495719967564965
(-6.2587912, 53.3394882) (-6.2589429, 53.3388171) 0.07607199600177292
(-6.4323462, 53.3487228) (-6.4327172, 53.3493167) 0.07751271024424689
(-6.117674, 53.2420807) (-6.1169749, 53.2421186) 0.07784933524721861
(-6.1933237, 53.291877) (-6.193104, 53.2911886) 0.07992499837739732
(-6.2839274, 53.3891039) (-6.283653, 53.3897773) 0.08044027541977072
(-6.2882393, 53.3837821) (-6.2875648, 53.383511) 0.0807649787606466
(-6.2261755, 53.307546) (-6.2262813, 53.3068227) 0.08081388065709459
(-6.1619121, 53.2508438) (-6.1621166, 53.2501125) 0.08398416655312826
(-6.3491923, 53.2809858) (-6.348563, 53.2805635) 0.08411046042144428
(-6.2677975, 53.5222972) (-6.2671587, 53.5227071) 0.08425043588897195
(-6.1768413, 53.4332296) (-6.1768231, 53.4340234) 0.08777755961039355
(-6.4366097, 53.3916014) (-6.4367263, 53.3907861) 0.09101409697594669
(-6.4151227, 53.2687511) (-6.4153734, 53.2679638) 0.09135293132132613
(-6.366526, 53.4118919) (-6.3660747, 53.4111896) 0.09242128121147608
(-6.3566587, 53.3331266) (-6.3568565, 53.3339542) 0.09406672467362517
(-6.1969339, 53.4047252) (-6.1969801, 53.4055853) 0.09521872333443683
(-6.2907499, 53.3971902) (-6.2911484, 53.3964048) 0.09746226522168312
(-6.2277994, 53.469216) (-6.2283024, 53.4699647) 0.09988781188453305
(-6.2236166, 53.3174024) (-6.2241451, 53.3166713) 0.09992331138768436
(-6.2330748, 53.3417288) (-6.2330452, 53.3426377) 0.10052165873077264
(-6.3443936, 53.3491327) (-6.3448392, 53.3499462) 0.10265298745478756
(-6.2011804, 53.4466365) (-6.2017374, 53.4458875) 0.10339967640768148
(-6.1761814, 53.3823011) (-6.1770792, 53.3820123) 0.10481189174121083
(-6.2140495, 53.3102388) (-6.2142576, 53.3111696) 0.1054621180932742
(-6.2453501, 53.4164903) (-6.2463325, 53.4165966) 0.10986815035148147
(-6.4264232, 53.3200464) (-6.4267143, 53.3210135) 0.11165581612949127
(-6.1462071, 53.4873758) (-6.1472186, 53.4874659) 0.11291405627850509
(-6.3147281, 53.415498) (-6.3147326, 53.4165374) 0.11487602213410719
(-6.3138939, 53.4164968) (-6.313864, 53.4175368) 0.11498950825381889
(-6.4452627, 53.3938267) (-6.445948, 53.3946325) 0.11719174911675648
(-6.2457531, 53.4153585) (-6.2463526, 53.4144848) 0.11734722312716925
(-6.1481579, 53.3692413) (-6.1476126, 53.370154) 0.11772083853845626
(-6.2400735, 53.2458395) (-6.2392773, 53.2451151) 0.11937250728039701
(-6.2251343, 53.3037671) (-6.2249271, 53.3048454) 0.1214009688591665
(-6.0701611, 53.3738567) (-6.0694271, 53.3747099) 0.12474517544020959
(-6.2492875, 53.4512723) (-6.2497867, 53.4502595) 0.12495521719641887
(-6.37966, 53.2973925) (-6.3794206, 53.2962383) 0.13029494321073892
(-6.1432276, 53.2994436) (-6.1423354, 53.2986662) 0.13125973067211588
(-6.2214859, 53.3021622) (-6.2203472, 53.3018472) 0.13131840280442514
(-6.4318513, 53.2724225) (-6.4325298, 53.2734539) 0.13667488390955618
(-6.2053285, 53.4783725) (-6.2044292, 53.4792441) 0.1388626794048766
(-6.15735, 53.5268863) (-6.1582815, 53.526038) 0.13972691951769659
(-6.16888, 53.5263178) (-6.1686636, 53.5275646) 0.13991987140644305
(-6.2376367, 53.2684445) (-6.2372236, 53.2672479) 0.1400175582186119
(-6.1522304, 53.4509314) (-6.152386, 53.4522127) 0.14270641943186796
(-6.4748984, 53.2819713) (-6.474468, 53.2807193) 0.14637328396243066
(-6.3957911, 53.4388158) (-6.396563, 53.4377071) 0.1495890045930126
(-6.3770032, 53.2918427) (-6.3773928, 53.2932214) 0.15839546671721355
(-6.2155317, 53.3040129) (-6.2167556, 53.3032287) 0.16135516039051573
(-6.250242, 53.4503456) (-6.2516882, 53.4505893) 0.16305081886764125
(-6.3554687, 53.3197308) (-6.3552045, 53.3182094) 0.1706798337696737
(-6.2318953, 53.2592515) (-6.2303766, 53.2588687) 0.17409255222421297
(-6.1453249, 53.4853715) (-6.1463889, 53.4866515) 0.1844537348033961
(-6.25683, 53.3862093) (-6.2562882, 53.3846166) 0.18606870422384975
(-6.1903617, 53.2605613) (-6.1897674, 53.2621493) 0.18757450082812524
(-6.1553533, 53.4521062) (-6.1556955, 53.4504146) 0.1908449177079081
(-6.4392293, 53.392415) (-6.4388519, 53.3941419) 0.19537163034691302
(-6.1479008, 53.2479205) (-6.149534, 53.2471517) 0.20050957748290812
(-6.4257661, 53.3988832) (-6.4268024, 53.3973814) 0.202028551663213
(-6.1916905, 53.3502472) (-6.1917562, 53.3482664) 0.21909220138580154
(-6.3842987, 53.564644) (-6.3845467, 53.5624157) 0.2477786671340649
(-6.3065887, 53.4882192) (-6.304361, 53.4880955) 0.24808627680402837
(-6.3035948, 53.4903438) (-6.3038702, 53.4880428) 0.2561500094093963
(-6.2216898, 53.3438764) (-6.2205169, 53.3458847) 0.257473649643521
(-6.1215163, 53.5826414) (-6.1199583, 53.5806356) 0.28141053624532714
(-6.192559, 53.271407) (-6.1919943, 53.2686349) 0.3128124418354505
(-6.4540107, 53.3357861) (-6.4570956, 53.3362103) 0.34621296604483964
(-6.4807886, 53.2808173) (-6.4792489, 53.2778518) 0.36967737053339794
(-6.5020054, 53.2696139) (-6.4988555, 53.2708658) 0.3765728828796537
(-6.1796104, 53.3619424) (-6.1782757, 53.3587743) 0.38037826467975927
(-6.2447092, 53.4282361) (-6.2479778, 53.4264907) 0.41148344561509
(-6.261853, 53.4266924) (-6.2652606, 53.4285987) 0.4335533285870757
(-6.3745783, 53.2449083) (-6.3712128, 53.2469372) 0.4362520134317017
(-6.1296682, 53.2366827) (-6.1262017, 53.2346689) 0.4451387837453695
(-6.2109481, 53.5746026) (-6.2072529, 53.5726769) 0.46275651394171047
(-6.3849318, 53.5687907) (-6.3842987, 53.564644) 0.4636088589733369
(-6.1029567, 53.5190067) (-6.1010769, 53.5227533) 0.4639920148002051
(-6.1211903, 53.234374) (-6.1253929, 53.2349425) 0.4715164632402181
(-6.1843885, 53.6034166) (-6.1830936, 53.6084556) 0.575359804741097
(-6.1188343, 53.5739882) (-6.1200114, 53.5796487) 0.639373781480109
(-6.1474458, 53.4942908) (-6.1472186, 53.4874659) 0.7549543414882622
(-6.1324584, 53.2307039) (-6.1392011, 53.2263003) 0.8939569547086617
(-6.0633555, 53.3923069) (-6.060502, 53.4000323) 0.9112482075227755
(-6.1462954, 53.4751525) (-6.14534, 53.4842742) 1.01403894354998
(-6.1292975, 53.3878457) (-6.1308859, 53.3787794) 1.0178054654295505
(-6.4805736, 53.2938251) (-6.489032, 53.2979607) 1.045645097459866
(-6.1192806, 53.2133476) (-6.1088688, 53.2146695) 1.1669295953718943
(-6.4554721, 53.284507) (-6.4503733, 53.2747117) 1.2217995057774282
(-6.1012064, 53.5470056) (-6.10517, 53.5336739) 1.5384966529653408
(-6.0818514, 53.5225458) (-6.097753, 53.5258783) 1.8061636032273056
(-6.3215776, 53.4906623) (-6.3154827, 53.5239767) 3.743749042202892